Problem 1
-10
-9
-8
-7
-6
-5
-4
-3
-2
-1
0
1
2
3
4
5
6
7
8
9
10
11
12
13
14
15
16
17
18
19

Problem 2
10
12
14
16
18
20
22
24
26
28
30
32
34
36
38
40

Problem 3
301
303
305
307
309
311
313
315
317
319
321
323
325
327
329
331
333

Problem 4
15
30
45
